Extract raster values for multiple buffers — util_extract_multibuffer • landscapetools
…
# show multiple points share
new_points = matrix(c(75, 110, 75, 30), ncol = 2)
util_extract_multibuffer(classified_landscape, new_points, c(5, 10, 20, 30))
#> # A tibble: 24 × 4
#>    id          layer  freq buffer
#>    <chr>       <fct> <int>  <dbl>
#>  1 Point ID: 1 1        19      5
#>  2 Point ID: 2 1         7      5
#>  3 Point ID: 1 2        61      5
#>  4 Point ID: 2 2        68      5
#>  5 Point ID: 1 3         0      5
#>  6 Point ID: 2 3         5      5
#>  7 Point ID: 1 1        80     10
#>  8 Point ID: 2 1        38     10
#>  9 Point ID: 1 2       236     10
#> 10 Point ID: 2 2       266     10
#> # ℹ 14 more rows
…
